<?xml version="1.0" encoding="UTF-8"?>
<glyph name="Aacute" format="2">
	<advance width="745"/>
	<unicode hex="00C1"/>
	<note>
		Aacute
  </note>
	<outline>
		<contour>
			<point x="476" y="940" type="line"/>
			<point x="395" y="940" type="line"/>
			<point x="369" y="760" type="line"/>
			<point x="381" y="760" type="line"/>
		</contour>
		<contour>
			<point x="476" y="-3" type="line"/>
			<point x="636" y="0" type="line"/>
			<point x="760" y="-3" type="line"/>
			<point x="760" y="22" type="line"/>
			<point x="740" y="24" type="line" smooth="yes"/>
			<point x="686" y="29"/>
			<point x="660" y="58"/>
			<point x="634" y="123" type="curve"/>
			<point x="398" y="710" type="line"/>
			<point x="364" y="710" type="line"/>
			<point x="122" y="123" type="line" smooth="yes"/>
			<point x="92" y="50"/>
			<point x="63" y="32"/>
			<point x="-6" y="23" type="curve"/>
			<point x="-15" y="22" type="line"/>
			<point x="-15" y="-3" type="line"/>
			<point x="106" y="0" type="line"/>
			<point x="233" y="-3" type="line"/>
			<point x="233" y="22" type="line"/>
			<point x="213" y="24" type="line" smooth="yes"/>
			<point x="162" y="28"/>
			<point x="142" y="41"/>
			<point x="142" y="66" type="curve"/>
			<point x="142" y="81"/>
			<point x="149" y="100"/>
			<point x="159" y="124" type="curve"/>
			<point x="213" y="254" type="line"/>
			<point x="495" y="254" type="line"/>
			<point x="547" y="124" type="line" smooth="yes"/>
			<point x="556" y="102"/>
			<point x="561" y="84"/>
			<point x="561" y="70" type="curve"/>
			<point x="561" y="43"/>
			<point x="543" y="29"/>
			<point x="496" y="24" type="curve"/>
			<point x="476" y="22" type="line"/>
		</contour>
		<contour>
			<point x="483" y="286" type="line"/>
			<point x="226" y="286" type="line"/>
			<point x="357" y="603" type="line"/>
		</contour>
	</outline>
</glyph>
