<?xml version="1.0" encoding="UTF-8"?>
<glyph name="aring" format="2">
	<advance width="490"/>
	<unicode hex="00E5"/>
	<note>
		aring
  </note>
	<outline>
		<contour>
			<point x="240" y="527" type="curve"/>
			<point x="240" y="527" type="line"/>
			<point x="280" y="527"/>
			<point x="323" y="553"/>
			<point x="323" y="612" type="curve"/>
			<point x="323" y="649"/>
			<point x="298" y="697"/>
			<point x="239" y="697" type="curve"/>
			<point x="184" y="697"/>
			<point x="154" y="654"/>
			<point x="154" y="612" type="curve"/>
			<point x="154" y="565"/>
			<point x="188" y="527"/>
		</contour>
		<contour>
			<point x="239" y="666" type="curve"/>
			<point x="239" y="666" type="line"/>
			<point x="265" y="666"/>
			<point x="290" y="647"/>
			<point x="290" y="612" type="curve"/>
			<point x="290" y="576"/>
			<point x="265" y="558"/>
			<point x="240" y="558" type="curve"/>
			<point x="212" y="558"/>
			<point x="187" y="578"/>
			<point x="187" y="612" type="curve"/>
			<point x="187" y="650"/>
			<point x="216" y="666"/>
		</contour>
		<contour>
			<point x="490" y="52" type="curve"/>
			<point x="490" y="52" type="line"/>
			<point x="472" y="59" type="line"/>
			<point x="466" y="41"/>
			<point x="451" y="24"/>
			<point x="431" y="24" type="curve"/>
			<point x="400" y="24"/>
			<point x="395" y="57"/>
			<point x="395" y="116" type="curve"/>
			<point x="395" y="296" type="line" smooth="yes"/>
			<point x="395" y="408"/>
			<point x="348" y="454"/>
			<point x="241" y="454" type="curve"/>
			<point x="166" y="454"/>
			<point x="69" y="427"/>
			<point x="69" y="356" type="curve"/>
			<point x="69" y="331"/>
			<point x="87" y="310"/>
			<point x="111" y="310" type="curve"/>
			<point x="136" y="310"/>
			<point x="157" y="325"/>
			<point x="157" y="350" type="curve"/>
			<point x="157" y="360"/>
			<point x="155" y="369"/>
			<point x="152" y="377" type="curve"/>
			<point x="150" y="383"/>
			<point x="148" y="390"/>
			<point x="148" y="396" type="curve"/>
			<point x="148" y="421"/>
			<point x="191" y="429"/>
			<point x="227" y="429" type="curve"/>
			<point x="303" y="429"/>
			<point x="325" y="393"/>
			<point x="325" y="320" type="curve"/>
			<point x="325" y="288" type="line"/>
			<point x="287" y="273"/>
			<point x="232" y="252"/>
			<point x="180" y="223" type="curve"/>
			<point x="111" y="185"/>
			<point x="50" y="141"/>
			<point x="50" y="82" type="curve"/>
			<point x="50" y="23"/>
			<point x="97" y="-11"/>
			<point x="161" y="-11" type="curve"/>
			<point x="229" y="-11"/>
			<point x="289" y="21"/>
			<point x="326" y="82" type="curve"/>
			<point x="329" y="26"/>
			<point x="346" y="-11"/>
			<point x="405" y="-11" type="curve"/>
			<point x="453" y="-11"/>
			<point x="479" y="13"/>
		</contour>
		<contour>
			<point x="193" y="26" type="curve"/>
			<point x="193" y="26" type="line"/>
			<point x="150" y="26"/>
			<point x="128" y="50"/>
			<point x="128" y="87" type="curve"/>
			<point x="128" y="168"/>
			<point x="237" y="231"/>
			<point x="325" y="268" type="curve"/>
			<point x="325" y="122" type="line"/>
			<point x="306" y="73"/>
			<point x="251" y="26"/>
		</contour>
	</outline>
</glyph>
