<?xml version="1.0" encoding="UTF-8"?>
<glyph name="perthousand" format="2">
	<advance width="1041"/>
	<unicode hex="2030"/>
	<note>
		perthousand
  </note>
	<outline>
		<contour>
			<point x="329" y="448" type="curve"/>
			<point x="329" y="448" type="line"/>
			<point x="329" y="532"/>
			<point x="273" y="586"/>
			<point x="186" y="586" type="curve"/>
			<point x="101" y="586"/>
			<point x="45" y="532"/>
			<point x="45" y="448" type="curve"/>
			<point x="45" y="363"/>
			<point x="101" y="309"/>
			<point x="186" y="309" type="curve"/>
			<point x="273" y="309"/>
			<point x="329" y="363"/>
		</contour>
		<contour>
			<point x="613" y="575" type="line"/>
			<point x="140" y="0" type="line"/>
			<point x="198" y="0" type="line"/>
			<point x="671" y="575" type="line"/>
		</contour>
		<contour>
			<point x="106" y="448" type="curve"/>
			<point x="106" y="448" type="line"/>
			<point x="106" y="528"/>
			<point x="131" y="563"/>
			<point x="186" y="563" type="curve"/>
			<point x="242" y="563"/>
			<point x="267" y="528"/>
			<point x="267" y="448" type="curve"/>
			<point x="267" y="367"/>
			<point x="242" y="332"/>
			<point x="186" y="332" type="curve"/>
			<point x="131" y="332"/>
			<point x="106" y="367"/>
		</contour>
		<contour>
			<point x="853" y="267" type="curve"/>
			<point x="853" y="267" type="line"/>
			<point x="806" y="267"/>
			<point x="767" y="250"/>
			<point x="742" y="221" type="curve"/>
			<point x="718" y="250"/>
			<point x="679" y="267"/>
			<point x="630" y="267" type="curve"/>
			<point x="545" y="267"/>
			<point x="489" y="213"/>
			<point x="489" y="129" type="curve"/>
			<point x="489" y="44"/>
			<point x="545" y="-10"/>
			<point x="630" y="-10" type="curve"/>
			<point x="679" y="-10"/>
			<point x="718" y="7"/>
			<point x="742" y="37" type="curve"/>
			<point x="767" y="7"/>
			<point x="806" y="-10"/>
			<point x="853" y="-10" type="curve"/>
			<point x="940" y="-10"/>
			<point x="996" y="44"/>
			<point x="996" y="129" type="curve"/>
			<point x="996" y="213"/>
			<point x="940" y="267"/>
		</contour>
		<contour>
			<point x="630" y="13" type="curve"/>
			<point x="630" y="13" type="line"/>
			<point x="575" y="13"/>
			<point x="550" y="48"/>
			<point x="550" y="129" type="curve"/>
			<point x="550" y="209"/>
			<point x="575" y="244"/>
			<point x="630" y="244" type="curve"/>
			<point x="686" y="244"/>
			<point x="711" y="211"/>
			<point x="711" y="129" type="curve"/>
			<point x="711" y="48"/>
			<point x="686" y="13"/>
		</contour>
		<contour>
			<point x="853" y="13" type="curve"/>
			<point x="853" y="13" type="line"/>
			<point x="798" y="13"/>
			<point x="773" y="48"/>
			<point x="773" y="129" type="curve"/>
			<point x="773" y="209"/>
			<point x="798" y="244"/>
			<point x="853" y="244" type="curve"/>
			<point x="909" y="244"/>
			<point x="934" y="211"/>
			<point x="934" y="129" type="curve"/>
			<point x="934" y="48"/>
			<point x="909" y="13"/>
		</contour>
	</outline>
</glyph>
