<?xml version="1.0" encoding="UTF-8"?>
<glyph name="question.sc" format="2">
	<advance width="274"/>
	<note>
		question.sc
  </note>
	<outline>
		<contour>
			<point x="146" y="469" type="curve"/>
			<point x="146" y="469" type="line"/>
			<point x="96" y="469"/>
			<point x="37" y="440"/>
			<point x="37" y="399" type="curve"/>
			<point x="37" y="379"/>
			<point x="52" y="364"/>
			<point x="72" y="364" type="curve"/>
			<point x="96" y="364"/>
			<point x="105" y="379"/>
			<point x="105" y="392" type="curve"/>
			<point x="105" y="401"/>
			<point x="101" y="410"/>
			<point x="101" y="417" type="curve"/>
			<point x="101" y="433"/>
			<point x="118" y="444"/>
			<point x="143" y="444" type="curve"/>
			<point x="196" y="444"/>
			<point x="219" y="413"/>
			<point x="216" y="349" type="curve"/>
			<point x="213" y="301"/>
			<point x="186" y="262"/>
			<point x="134" y="262" type="curve"/>
			<point x="105" y="262"/>
			<point x="85" y="277"/>
			<point x="69" y="301" type="curve"/>
			<point x="51" y="301" type="line"/>
			<point x="60" y="156" type="line" smooth="yes"/>
			<point x="61" y="139"/>
			<point x="75" y="132"/>
			<point x="89" y="132" type="curve"/>
			<point x="105" y="132"/>
			<point x="122" y="144"/>
			<point x="115" y="166" type="curve"/>
			<point x="106" y="189"/>
			<point x="94" y="211"/>
			<point x="82" y="253" type="curve"/>
			<point x="99" y="244"/>
			<point x="120" y="237"/>
			<point x="139" y="237" type="curve"/>
			<point x="226" y="237"/>
			<point x="280" y="287"/>
			<point x="283" y="349" type="curve"/>
			<point x="286" y="422"/>
			<point x="220" y="469"/>
		</contour>
		<contour>
			<point x="89" y="90" type="curve"/>
			<point x="89" y="90" type="line"/>
			<point x="60" y="90"/>
			<point x="38" y="67"/>
			<point x="38" y="40" type="curve"/>
			<point x="38" y="12"/>
			<point x="60" y="-11"/>
			<point x="89" y="-11" type="curve"/>
			<point x="117" y="-11"/>
			<point x="139" y="12"/>
			<point x="139" y="40" type="curve"/>
			<point x="139" y="67"/>
			<point x="117" y="90"/>
		</contour>
	</outline>
</glyph>
