<?xml version="1.0" encoding="UTF-8"?>
<glyph name="scedilla.sc" format="2">
	<advance width="389"/>
	<note>
		scedilla.sc
  </note>
	<outline>
		<contour>
			<point x="183" y="-60" type="curve"/>
			<point x="183" y="-60" type="line"/>
			<point x="200" y="-11" type="line"/>
			<point x="204" y="-11" type="line" smooth="yes"/>
			<point x="296" y="-11"/>
			<point x="352" y="51"/>
			<point x="352" y="120" type="curve"/>
			<point x="352" y="174"/>
			<point x="325" y="223"/>
			<point x="248" y="257" type="curve"/>
			<point x="201" y="278" type="line" smooth="yes"/>
			<point x="168" y="293"/>
			<point x="120" y="315"/>
			<point x="120" y="369" type="curve"/>
			<point x="120" y="404"/>
			<point x="147" y="441"/>
			<point x="200" y="441" type="curve"/>
			<point x="257" y="441"/>
			<point x="301" y="397"/>
			<point x="313" y="327" type="curve"/>
			<point x="334" y="327" type="line"/>
			<point x="333" y="404" type="line"/>
			<point x="335" y="466" type="line"/>
			<point x="313" y="466" type="line"/>
			<point x="312" y="447"/>
			<point x="308" y="442"/>
			<point x="300" y="442" type="curve"/>
			<point x="293" y="442"/>
			<point x="281" y="446"/>
			<point x="262" y="454" type="curve"/>
			<point x="244" y="461"/>
			<point x="222" y="469"/>
			<point x="194" y="469" type="curve"/>
			<point x="115" y="469"/>
			<point x="56" y="422"/>
			<point x="56" y="347" type="curve"/>
			<point x="56" y="288"/>
			<point x="92" y="247"/>
			<point x="151" y="222" type="curve"/>
			<point x="205" y="199" type="line" smooth="yes"/>
			<point x="252" y="179"/>
			<point x="288" y="154"/>
			<point x="288" y="98" type="curve"/>
			<point x="288" y="49"/>
			<point x="248" y="17"/>
			<point x="199" y="17" type="curve"/>
			<point x="121" y="17"/>
			<point x="68" y="82"/>
			<point x="60" y="168" type="curve"/>
			<point x="37" y="168" type="line"/>
			<point x="41" y="70" type="line"/>
			<point x="38" y="-1" type="line"/>
			<point x="59" y="-1" type="line"/>
			<point x="60" y="15"/>
			<point x="64" y="27"/>
			<point x="79" y="27" type="curve"/>
			<point x="89" y="27"/>
			<point x="99" y="22"/>
			<point x="119" y="11" type="curve"/>
			<point x="133" y="4"/>
			<point x="150" y="-4"/>
			<point x="171" y="-8" type="curve"/>
			<point x="155" y="-57" type="line"/>
			<point x="119" y="-57"/>
			<point x="85" y="-75"/>
			<point x="66" y="-109" type="curve"/>
			<point x="86" y="-122" type="line"/>
			<point x="101" y="-99"/>
			<point x="125" y="-82"/>
			<point x="148" y="-82" type="curve"/>
			<point x="192" y="-82"/>
			<point x="216" y="-120"/>
			<point x="216" y="-166" type="curve"/>
			<point x="216" y="-214"/>
			<point x="192" y="-264"/>
			<point x="145" y="-264" type="curve"/>
			<point x="104" y="-264"/>
			<point x="76" y="-234"/>
			<point x="70" y="-203" type="curve"/>
			<point x="48" y="-210" type="line"/>
			<point x="57" y="-249"/>
			<point x="91" y="-292"/>
			<point x="151" y="-292" type="curve"/>
			<point x="213" y="-292"/>
			<point x="267" y="-243"/>
			<point x="267" y="-169" type="curve"/>
			<point x="267" y="-115"/>
			<point x="232" y="-72"/>
		</contour>
	</outline>
</glyph>
