<?xml version="1.0" encoding="UTF-8"?>
<glyph name="uni0328.case" format="2">
	<advance width="0"/>
	<note>
		uni0328.case
  </note>
	<outline>
		<contour>
			<point x="-150" y="-294" type="curve"/>
			<point x="-150" y="-294" type="line"/>
			<point x="-64" y="-294"/>
			<point x="-27" y="-234"/>
			<point x="-20" y="-183" type="curve"/>
			<point x="-37" y="-170" type="line"/>
			<point x="-56" y="-212"/>
			<point x="-92" y="-239"/>
			<point x="-129" y="-239" type="curve"/>
			<point x="-177" y="-239"/>
			<point x="-208" y="-210"/>
			<point x="-208" y="-154" type="curve"/>
			<point x="-208" y="-94"/>
			<point x="-160" y="-44"/>
			<point x="-103" y="19" type="curve"/>
			<point x="-129" y="19" type="line"/>
			<point x="-181" y="-42"/>
			<point x="-258" y="-117"/>
			<point x="-258" y="-192" type="curve"/>
			<point x="-258" y="-250"/>
			<point x="-211" y="-294"/>
		</contour>
	</outline>
</glyph>
