<?xml version="1.0" encoding="UTF-8"?>
<glyph name="ycircumflex.sc" format="2">
	<advance width="498"/>
	<note>
		ycircumflex.sc
  </note>
	<outline>
		<contour>
			<point x="269" y="695" type="line"/>
			<point x="247" y="695" type="line"/>
			<point x="153" y="505" type="line"/>
			<point x="177" y="505" type="line"/>
			<point x="255" y="603" type="line"/>
			<point x="261" y="603" type="line"/>
			<point x="339" y="505" type="line"/>
			<point x="363" y="505" type="line"/>
		</contour>
		<contour>
			<point x="459" y="433" type="curve"/>
			<point x="459" y="433" type="line"/>
			<point x="481" y="435" type="line"/>
			<point x="481" y="457" type="line"/>
			<point x="399" y="454" type="line"/>
			<point x="307" y="457" type="line"/>
			<point x="307" y="435" type="line"/>
			<point x="330" y="433" type="line" smooth="yes"/>
			<point x="353" y="431"/>
			<point x="370" y="423"/>
			<point x="370" y="406" type="curve"/>
			<point x="370" y="401"/>
			<point x="369" y="395"/>
			<point x="365" y="388" type="curve"/>
			<point x="274" y="212" type="line"/>
			<point x="173" y="382" type="line" smooth="yes"/>
			<point x="169" y="389"/>
			<point x="167" y="396"/>
			<point x="167" y="402" type="curve"/>
			<point x="167" y="422"/>
			<point x="191" y="432"/>
			<point x="208" y="433" type="curve"/>
			<point x="235" y="435" type="line"/>
			<point x="235" y="458" type="line"/>
			<point x="131" y="455" type="line"/>
			<point x="17" y="458" type="line"/>
			<point x="17" y="435" type="line"/>
			<point x="37" y="431" type="line" smooth="yes"/>
			<point x="71" y="424"/>
			<point x="77" y="415"/>
			<point x="102" y="373" type="curve"/>
			<point x="222" y="174" type="line"/>
			<point x="222" y="122" type="line" smooth="yes"/>
			<point x="222" y="32"/>
			<point x="208" y="30"/>
			<point x="150" y="23" type="curve"/>
			<point x="134" y="21" type="line"/>
			<point x="134" y="-2" type="line"/>
			<point x="257" y="1" type="line"/>
			<point x="387" y="-2" type="line"/>
			<point x="387" y="21" type="line"/>
			<point x="370" y="23" type="line" smooth="yes"/>
			<point x="305" y="30"/>
			<point x="292" y="39"/>
			<point x="292" y="122" type="curve"/>
			<point x="292" y="191" type="line"/>
			<point x="389" y="379" type="line" smooth="yes"/>
			<point x="405" y="410"/>
			<point x="424" y="430"/>
		</contour>
	</outline>
</glyph>
