<?xml version="1.0" encoding="UTF-8"?>
<glyph name="zdotaccent.sc" format="2">
	<advance width="494"/>
	<note>
		zdotaccent.sc
  </note>
	<outline>
		<contour>
			<point x="247" y="543" type="curve"/>
			<point x="247" y="543" type="line"/>
			<point x="285" y="543"/>
			<point x="303" y="570"/>
			<point x="303" y="604" type="curve"/>
			<point x="303" y="638"/>
			<point x="285" y="665"/>
			<point x="247" y="665" type="curve"/>
			<point x="212" y="665"/>
			<point x="191" y="638"/>
			<point x="191" y="604" type="curve"/>
			<point x="191" y="570"/>
			<point x="212" y="543"/>
		</contour>
		<contour>
			<point x="220" y="428" type="curve"/>
			<point x="220" y="428" type="line"/>
			<point x="349" y="428" type="line"/>
			<point x="47" y="17" type="line"/>
			<point x="47" y="-2" type="line"/>
			<point x="302" y="0" type="line"/>
			<point x="441" y="-2" type="line"/>
			<point x="441" y="69" type="line"/>
			<point x="447" y="178" type="line"/>
			<point x="425" y="178" type="line"/>
			<point x="412" y="78"/>
			<point x="394" y="29"/>
			<point x="290" y="27" type="curve"/>
			<point x="138" y="24" type="line"/>
			<point x="436" y="427" type="line"/>
			<point x="436" y="457" type="line"/>
			<point x="262" y="455" type="line"/>
			<point x="57" y="457" type="line"/>
			<point x="56" y="415" type="line"/>
			<point x="49" y="329" type="line"/>
			<point x="72" y="329" type="line"/>
			<point x="80" y="394"/>
			<point x="87" y="427"/>
		</contour>
	</outline>
</glyph>
