<?xml version="1.0" encoding="UTF-8"?>
<glyph name="bar" format="2">
	<advance width="184"/>
	<unicode hex="007C"/>
	<note>
		bar
  </note>
	<outline>
		<contour>
			<point x="74" y="834" type="line"/>
			<point x="74" y="-135" type="line"/>
			<point x="109" y="-135" type="line"/>
			<point x="109" y="834" type="line"/>
		</contour>
	</outline>
</glyph>
