<?xml version="1.0" encoding="UTF-8"?>
<glyph name="dcaron" format="2">
	<advance width="545"/>
	<unicode hex="010F"/>
	<note>
		dcaron
  </note>
	<outline>
		<contour>
			<point x="457" y="109" type="curve"/>
			<point x="457" y="109" type="line"/>
			<point x="457" y="725" type="line"/>
			<point x="402" y="715"/>
			<point x="354" y="713"/>
			<point x="299" y="713" type="curve"/>
			<point x="299" y="690" type="line"/>
			<point x="306" y="690" type="line" smooth="yes"/>
			<point x="356" y="690"/>
			<point x="387" y="678"/>
			<point x="387" y="609" type="curve"/>
			<point x="387" y="397" type="line"/>
			<point x="357" y="427"/>
			<point x="308" y="454"/>
			<point x="252" y="454" type="curve"/>
			<point x="133" y="454"/>
			<point x="45" y="352"/>
			<point x="45" y="223" type="curve"/>
			<point x="45" y="92"/>
			<point x="133" y="-11"/>
			<point x="248" y="-11" type="curve"/>
			<point x="310" y="-11"/>
			<point x="360" y="19"/>
			<point x="396" y="62" type="curve"/>
			<point x="409" y="-8" type="line"/>
			<point x="444" y="-1"/>
			<point x="469" y="0"/>
			<point x="499" y="0" type="curve"/>
			<point x="540" y="0" type="line"/>
			<point x="540" y="23" type="line"/>
			<point x="486" y="23"/>
			<point x="457" y="34"/>
		</contour>
		<contour>
			<point x="574" y="721" type="curve"/>
			<point x="574" y="721" type="line"/>
			<point x="557" y="721"/>
			<point x="543" y="709"/>
			<point x="538" y="663" type="curve"/>
			<point x="519" y="506" type="line"/>
			<point x="543" y="506" type="line"/>
			<point x="595" y="652" type="line" smooth="yes"/>
			<point x="606" y="684"/>
			<point x="607" y="721"/>
		</contour>
		<contour>
			<point x="258" y="19" type="curve"/>
			<point x="258" y="19" type="line"/>
			<point x="169" y="19"/>
			<point x="125" y="107"/>
			<point x="125" y="223" type="curve"/>
			<point x="125" y="337"/>
			<point x="169" y="424"/>
			<point x="261" y="424" type="curve"/>
			<point x="316" y="424"/>
			<point x="365" y="390"/>
			<point x="387" y="356" type="curve"/>
			<point x="387" y="86" type="line"/>
			<point x="357" y="49"/>
			<point x="315" y="19"/>
		</contour>
	</outline>
</glyph>
