<?xml version="1.0" encoding="UTF-8"?>
<glyph name="dotaccent" format="2">
	<advance width="281"/>
	<unicode hex="02D9"/>
	<note>
		dotaccent
  </note>
	<outline>
		<contour>
			<point x="134" y="544" type="curve"/>
			<point x="134" y="544" type="line"/>
			<point x="172" y="544"/>
			<point x="190" y="571"/>
			<point x="190" y="605" type="curve"/>
			<point x="190" y="639"/>
			<point x="172" y="666"/>
			<point x="134" y="666" type="curve"/>
			<point x="99" y="666"/>
			<point x="78" y="639"/>
			<point x="78" y="605" type="curve"/>
			<point x="78" y="571"/>
			<point x="99" y="544"/>
		</contour>
	</outline>
</glyph>
