<?xml version="1.0" encoding="UTF-8"?>
<glyph name="igrave.sc" format="2">
	<advance width="305"/>
	<note>
		igrave.sc
  </note>
	<outline>
		<contour>
			<point x="146" y="505" type="line"/>
			<point x="158" y="505" type="line"/>
			<point x="132" y="685" type="line"/>
			<point x="51" y="685" type="line"/>
		</contour>
		<contour>
			<point x="46" y="22" type="curve"/>
			<point x="46" y="22" type="line"/>
			<point x="30" y="20" type="line"/>
			<point x="30" y="-3" type="line"/>
			<point x="153" y="0" type="line"/>
			<point x="276" y="-3" type="line"/>
			<point x="276" y="20" type="line"/>
			<point x="260" y="22" type="line" smooth="yes"/>
			<point x="202" y="29"/>
			<point x="187" y="31"/>
			<point x="187" y="121" type="curve"/>
			<point x="187" y="334" type="line" smooth="yes"/>
			<point x="187" y="424"/>
			<point x="201" y="426"/>
			<point x="259" y="433" type="curve"/>
			<point x="275" y="435" type="line"/>
			<point x="275" y="458" type="line"/>
			<point x="152" y="455" type="line"/>
			<point x="29" y="458" type="line"/>
			<point x="29" y="435" type="line"/>
			<point x="45" y="433" type="line" smooth="yes"/>
			<point x="103" y="426"/>
			<point x="117" y="424"/>
			<point x="117" y="334" type="curve"/>
			<point x="117" y="121" type="line" smooth="yes"/>
			<point x="117" y="31"/>
			<point x="104" y="29"/>
		</contour>
	</outline>
</glyph>
