<?xml version="1.0" encoding="UTF-8"?>
<glyph name="Lcaron" format="2">
	<advance width="651"/>
	<unicode hex="013D"/>
	<note>
		Lcaron
  </note>
	<outline>
		<contour>
			<point x="458" y="661" type="curve"/>
			<point x="458" y="661" type="line"/>
			<point x="438" y="488" type="line"/>
			<point x="463" y="488" type="line"/>
			<point x="517" y="649" type="line" smooth="yes"/>
			<point x="529" y="684"/>
			<point x="530" y="724"/>
			<point x="495" y="724" type="curve"/>
			<point x="478" y="724"/>
			<point x="463" y="711"/>
		</contour>
		<contour>
			<point x="60" y="24" type="curve"/>
			<point x="60" y="24" type="line"/>
			<point x="40" y="22" type="line"/>
			<point x="40" y="-3" type="line"/>
			<point x="188" y="0" type="line"/>
			<point x="606" y="-3" type="line"/>
			<point x="616" y="210" type="line"/>
			<point x="594" y="210" type="line"/>
			<point x="584" y="92"/>
			<point x="539" y="29"/>
			<point x="423" y="29" type="curve"/>
			<point x="348" y="29" type="line" smooth="yes"/>
			<point x="235" y="29"/>
			<point x="231" y="73"/>
			<point x="231" y="172" type="curve"/>
			<point x="231" y="589" type="line" smooth="yes"/>
			<point x="231" y="679"/>
			<point x="245" y="681"/>
			<point x="303" y="688" type="curve"/>
			<point x="319" y="690" type="line"/>
			<point x="319" y="713" type="line"/>
			<point x="190" y="710" type="line"/>
			<point x="40" y="713" type="line"/>
			<point x="40" y="688" type="line"/>
			<point x="60" y="686" type="line" smooth="yes"/>
			<point x="129" y="678"/>
			<point x="146" y="676"/>
			<point x="146" y="577" type="curve"/>
			<point x="146" y="133" type="line" smooth="yes"/>
			<point x="146" y="34"/>
			<point x="129" y="32"/>
		</contour>
	</outline>
</glyph>
