<?xml version="1.0" encoding="UTF-8"?>
<glyph name="uni030C.case" format="2">
	<advance width="0"/>
	<note>
		uni030C.case
  </note>
	<outline>
		<contour>
			<point x="-50" y="940" type="line"/>
			<point x="-74" y="940" type="line"/>
			<point x="-152" y="847" type="line"/>
			<point x="-158" y="847" type="line"/>
			<point x="-236" y="940" type="line"/>
			<point x="-260" y="940" type="line"/>
			<point x="-166" y="760" type="line"/>
			<point x="-144" y="760" type="line"/>
		</contour>
	</outline>
</glyph>
