<?xml version="1.0" encoding="UTF-8"?>
<glyph name="uni0123.sc" format="2">
	<advance width="557"/>
	<note>
		uni0123.sc
  </note>
	<outline>
		<contour>
			<point x="266" y="-11" type="curve"/>
			<point x="266" y="-11" type="line"/>
			<point x="316" y="-11"/>
			<point x="363" y="11"/>
			<point x="395" y="29" type="curve"/>
			<point x="411" y="38"/>
			<point x="426" y="43"/>
			<point x="442" y="43" type="curve"/>
			<point x="456" y="43"/>
			<point x="473" y="37"/>
			<point x="478" y="28" type="curve"/>
			<point x="496" y="39" type="line"/>
			<point x="490" y="49" type="line" smooth="yes"/>
			<point x="483" y="61"/>
			<point x="475" y="80"/>
			<point x="475" y="100" type="curve"/>
			<point x="475" y="113" type="line" smooth="yes"/>
			<point x="475" y="153"/>
			<point x="487" y="168"/>
			<point x="505" y="169" type="curve"/>
			<point x="535" y="171" type="line"/>
			<point x="535" y="193" type="line"/>
			<point x="435" y="190" type="line"/>
			<point x="327" y="193" type="line"/>
			<point x="327" y="171" type="line"/>
			<point x="355" y="169" type="line" smooth="yes"/>
			<point x="394" y="166"/>
			<point x="405" y="151"/>
			<point x="405" y="125" type="curve"/>
			<point x="405" y="89" type="line" smooth="yes"/>
			<point x="405" y="54"/>
			<point x="340" y="19"/>
			<point x="282" y="19" type="curve"/>
			<point x="165" y="19"/>
			<point x="127" y="110"/>
			<point x="127" y="218" type="curve"/>
			<point x="127" y="346"/>
			<point x="176" y="439"/>
			<point x="280" y="439" type="curve"/>
			<point x="354" y="439"/>
			<point x="410" y="391"/>
			<point x="426" y="305" type="curve"/>
			<point x="447" y="305" type="line"/>
			<point x="444" y="383" type="line"/>
			<point x="447" y="460" type="line"/>
			<point x="426" y="460" type="line"/>
			<point x="423" y="438"/>
			<point x="418" y="431"/>
			<point x="410" y="431" type="curve"/>
			<point x="403" y="431"/>
			<point x="398" y="433"/>
			<point x="380" y="442" type="curve"/>
			<point x="365" y="450"/>
			<point x="326" y="469"/>
			<point x="274" y="469" type="curve"/>
			<point x="147" y="469"/>
			<point x="47" y="369"/>
			<point x="47" y="218" type="curve"/>
			<point x="47" y="89"/>
			<point x="122" y="-11"/>
		</contour>
		<contour>
			<point x="295" y="-273" type="curve"/>
			<point x="295" y="-273" type="line"/>
			<point x="305" y="-288" type="line"/>
			<point x="348" y="-260"/>
			<point x="380" y="-230"/>
			<point x="380" y="-169" type="curve"/>
			<point x="380" y="-119"/>
			<point x="356" y="-87"/>
			<point x="320" y="-87" type="curve"/>
			<point x="291" y="-87"/>
			<point x="271" y="-107"/>
			<point x="271" y="-136" type="curve"/>
			<point x="271" y="-163"/>
			<point x="289" y="-181"/>
			<point x="316" y="-181" type="curve"/>
			<point x="334" y="-181"/>
			<point x="351" y="-167"/>
			<point x="351" y="-153" type="curve"/>
			<point x="351" y="-146"/>
			<point x="348" y="-141"/>
			<point x="348" y="-138" type="curve"/>
			<point x="348" y="-138"/>
			<point x="348" y="-137"/>
			<point x="349" y="-136" type="curve"/>
			<point x="359" y="-132"/>
			<point x="364" y="-153"/>
			<point x="364" y="-171" type="curve"/>
			<point x="364" y="-218"/>
			<point x="331" y="-248"/>
		</contour>
	</outline>
</glyph>
