<?xml version="1.0" encoding="UTF-8"?>
<glyph name="currency" format="2">
	<advance width="445"/>
	<unicode hex="00A4"/>
	<note>
		currency
	</note>
	<outline>
		<contour>
			<point x="392" y="366" type="curve"/>
			<point x="392" y="366" type="line"/>
			<point x="392" y="407"/>
			<point x="378" y="444"/>
			<point x="355" y="473" type="curve"/>
			<point x="405" y="523" type="line"/>
			<point x="380" y="548" type="line"/>
			<point x="330" y="498" type="line"/>
			<point x="301" y="521"/>
			<point x="264" y="535"/>
			<point x="223" y="535" type="curve"/>
			<point x="182" y="535"/>
			<point x="145" y="521"/>
			<point x="116" y="498" type="curve"/>
			<point x="65" y="549" type="line"/>
			<point x="40" y="523" type="line"/>
			<point x="90" y="473" type="line"/>
			<point x="67" y="444"/>
			<point x="53" y="407"/>
			<point x="53" y="366" type="curve"/>
			<point x="53" y="325"/>
			<point x="67" y="288"/>
			<point x="90" y="259" type="curve"/>
			<point x="40" y="209" type="line"/>
			<point x="66" y="183" type="line"/>
			<point x="116" y="233" type="line"/>
			<point x="145" y="210"/>
			<point x="182" y="197"/>
			<point x="223" y="197" type="curve"/>
			<point x="264" y="197"/>
			<point x="301" y="211"/>
			<point x="329" y="234" type="curve"/>
			<point x="380" y="183" type="line"/>
			<point x="405" y="209" type="line"/>
			<point x="355" y="259" type="line"/>
			<point x="378" y="288"/>
			<point x="392" y="325"/>
		</contour>
		<contour>
			<point x="93" y="366" type="curve"/>
			<point x="93" y="366" type="line"/>
			<point x="93" y="439"/>
			<point x="150" y="495"/>
			<point x="223" y="495" type="curve"/>
			<point x="296" y="495"/>
			<point x="352" y="439"/>
			<point x="352" y="366" type="curve"/>
			<point x="352" y="293"/>
			<point x="296" y="237"/>
			<point x="223" y="237" type="curve"/>
			<point x="150" y="237"/>
			<point x="93" y="293"/>
		</contour>
	</outline>
</glyph>
