<?xml version="1.0" encoding="UTF-8"?>
<glyph name="imacron" format="2">
	<advance width="299"/>
	<unicode hex="012B"/>
	<note>
		imacron
	</note>
	<outline>
		<contour>
			<point x="255" y="641" type="line"/>
			<point x="28" y="641" type="line"/>
			<point x="28" y="601" type="line"/>
			<point x="255" y="601" type="line"/>
		</contour>
		<contour>
			<point x="28" y="-3" type="line"/>
			<point x="151" y="0" type="line"/>
			<point x="274" y="-3" type="line"/>
			<point x="274" y="20" type="line"/>
			<point x="258" y="22" type="line" smooth="yes"/>
			<point x="200" y="29"/>
			<point x="186" y="31"/>
			<point x="186" y="121" type="curve"/>
			<point x="186" y="448" type="line"/>
			<point x="131" y="438"/>
			<point x="83" y="436"/>
			<point x="28" y="436" type="curve"/>
			<point x="28" y="413" type="line"/>
			<point x="35" y="413" type="line" smooth="yes"/>
			<point x="85" y="413"/>
			<point x="116" y="401"/>
			<point x="116" y="332" type="curve"/>
			<point x="116" y="121" type="line" smooth="yes"/>
			<point x="116" y="31"/>
			<point x="102" y="29"/>
			<point x="44" y="22" type="curve"/>
			<point x="28" y="20" type="line"/>
		</contour>
	</outline>
</glyph>
