<?xml version="1.0" encoding="UTF-8"?>
<glyph name="l.sc" format="2">
	<advance width="473"/>
	<note>
		l.sc
	</note>
	<outline>
		<contour>
			<point x="45" y="22" type="curve"/>
			<point x="45" y="22" type="line"/>
			<point x="29" y="20" type="line"/>
			<point x="29" y="-3" type="line"/>
			<point x="152" y="0" type="line"/>
			<point x="439" y="-2" type="line"/>
			<point x="446" y="163" type="line"/>
			<point x="423" y="163" type="line"/>
			<point x="415" y="73"/>
			<point x="384" y="25"/>
			<point x="305" y="25" type="curve"/>
			<point x="250" y="25" type="line" smooth="yes"/>
			<point x="194" y="25"/>
			<point x="187" y="60"/>
			<point x="187" y="119" type="curve"/>
			<point x="187" y="334" type="line" smooth="yes"/>
			<point x="187" y="424"/>
			<point x="201" y="426"/>
			<point x="259" y="433" type="curve"/>
			<point x="275" y="435" type="line"/>
			<point x="275" y="458" type="line"/>
			<point x="152" y="455" type="line"/>
			<point x="29" y="458" type="line"/>
			<point x="29" y="435" type="line"/>
			<point x="45" y="433" type="line" smooth="yes"/>
			<point x="103" y="426"/>
			<point x="117" y="424"/>
			<point x="117" y="334" type="curve"/>
			<point x="117" y="121" type="line" smooth="yes"/>
			<point x="117" y="31"/>
			<point x="103" y="29"/>
		</contour>
	</outline>
</glyph>
