<?xml version="1.0" encoding="UTF-8"?>
<glyph name="Q" format="2">
	<advance width="804"/>
	<unicode hex="0051"/>
	<note>
		Q
	</note>
	<outline>
		<contour>
			<point x="794" y="-124" type="curve"/>
			<point x="794" y="-124" type="line"/>
			<point x="774" y="-124" type="line"/>
			<point x="763" y="-200"/>
			<point x="719" y="-221"/>
			<point x="674" y="-221" type="curve"/>
			<point x="623" y="-221"/>
			<point x="573" y="-187"/>
			<point x="524" y="-147" type="curve"/>
			<point x="470" y="-103"/>
			<point x="416" y="-65"/>
			<point x="331" y="-65" type="curve"/>
			<point x="324" y="-65" type="line"/>
			<point x="444" y="-9" type="line"/>
			<point x="626" y="7"/>
			<point x="756" y="154"/>
			<point x="756" y="357" type="curve"/>
			<point x="756" y="572"/>
			<point x="609" y="724"/>
			<point x="409" y="724" type="curve"/>
			<point x="209" y="724"/>
			<point x="62" y="572"/>
			<point x="62" y="357" type="curve"/>
			<point x="62" y="149"/>
			<point x="198" y="0"/>
			<point x="387" y="-10" type="curve"/>
			<point x="242" y="-77" type="line"/>
			<point x="153" y="-77"/>
			<point x="89" y="-103"/>
			<point x="89" y="-152" type="curve"/>
			<point x="89" y="-174"/>
			<point x="101" y="-185"/>
			<point x="118" y="-185" type="curve"/>
			<point x="140" y="-185"/>
			<point x="161" y="-170"/>
			<point x="180" y="-151" type="curve"/>
			<point x="199" y="-132"/>
			<point x="221" y="-116"/>
			<point x="247" y="-100" type="curve"/>
			<point x="324" y="-104"/>
			<point x="382" y="-138"/>
			<point x="459" y="-202" type="curve"/>
			<point x="505" y="-240"/>
			<point x="558" y="-294"/>
			<point x="653" y="-294" type="curve"/>
			<point x="743" y="-294"/>
			<point x="784" y="-233"/>
		</contour>
		<contour>
			<point x="164" y="357" type="curve"/>
			<point x="164" y="357" type="line"/>
			<point x="164" y="566"/>
			<point x="236" y="694"/>
			<point x="409" y="694" type="curve"/>
			<point x="582" y="694"/>
			<point x="654" y="566"/>
			<point x="654" y="357" type="curve"/>
			<point x="654" y="147"/>
			<point x="582" y="19"/>
			<point x="409" y="19" type="curve"/>
			<point x="236" y="19"/>
			<point x="164" y="147"/>
		</contour>
	</outline>
</glyph>
