<?xml version="1.0" encoding="UTF-8"?>
<glyph name="s_t" format="2">
	<advance width="702"/>
	<unicode hex="F47C0"/>
	<note>
		s_t
	</note>
	<outline>
		<contour>
			<point x="692" y="73" type="curve"/>
			<point x="692" y="73" type="line"/>
			<point x="670" y="84" type="line"/>
			<point x="653" y="49"/>
			<point x="633" y="23"/>
			<point x="599" y="23" type="curve"/>
			<point x="558" y="23"/>
			<point x="537" y="52"/>
			<point x="537" y="111" type="curve"/>
			<point x="537" y="411" type="line"/>
			<point x="665" y="411" type="line"/>
			<point x="665" y="436" type="line"/>
			<point x="537" y="436" type="line"/>
			<point x="537" y="569" type="line" smooth="yes"/>
			<point x="537" y="579"/>
			<point x="537" y="724"/>
			<point x="352" y="724" type="curve"/>
			<point x="225" y="724"/>
			<point x="164" y="641"/>
			<point x="164" y="550" type="curve"/>
			<point x="164" y="506"/>
			<point x="180" y="475"/>
			<point x="201" y="454" type="curve"/>
			<point x="199" y="454" type="line" smooth="yes"/>
			<point x="129" y="454"/>
			<point x="66" y="404"/>
			<point x="66" y="325" type="curve"/>
			<point x="66" y="262"/>
			<point x="101" y="225"/>
			<point x="171" y="198" type="curve"/>
			<point x="207" y="184" type="line" smooth="yes"/>
			<point x="267" y="161"/>
			<point x="303" y="134"/>
			<point x="303" y="91" type="curve"/>
			<point x="303" y="42"/>
			<point x="266" y="12"/>
			<point x="212" y="12" type="curve"/>
			<point x="136" y="12"/>
			<point x="84" y="78"/>
			<point x="81" y="134" type="curve"/>
			<point x="80" y="151" type="line"/>
			<point x="58" y="151" type="line"/>
			<point x="55" y="66" type="line"/>
			<point x="51" y="0" type="line"/>
			<point x="74" y="0" type="line"/>
			<point x="78" y="19"/>
			<point x="80" y="21"/>
			<point x="86" y="21" type="curve"/>
			<point x="90" y="21"/>
			<point x="96" y="18"/>
			<point x="106" y="13" type="curve"/>
			<point x="126" y="3"/>
			<point x="161" y="-11"/>
			<point x="212" y="-11" type="curve"/>
			<point x="302" y="-11"/>
			<point x="352" y="51"/>
			<point x="352" y="122" type="curve"/>
			<point x="352" y="182"/>
			<point x="325" y="224"/>
			<point x="244" y="255" type="curve"/>
			<point x="205" y="270" type="line" smooth="yes"/>
			<point x="150" y="291"/>
			<point x="117" y="316"/>
			<point x="117" y="358" type="curve"/>
			<point x="117" y="401"/>
			<point x="151" y="432"/>
			<point x="195" y="432" type="curve"/>
			<point x="231" y="432"/>
			<point x="259" y="424"/>
			<point x="259" y="396" type="curve"/>
			<point x="259" y="390"/>
			<point x="257" y="383"/>
			<point x="255" y="377" type="curve"/>
			<point x="252" y="369"/>
			<point x="250" y="362"/>
			<point x="250" y="353" type="curve"/>
			<point x="250" y="334"/>
			<point x="268" y="319"/>
			<point x="287" y="319" type="curve"/>
			<point x="311" y="319"/>
			<point x="329" y="340"/>
			<point x="329" y="366" type="curve"/>
			<point x="329" y="398"/>
			<point x="308" y="421"/>
			<point x="280" y="435" type="curve"/>
			<point x="241" y="457"/>
			<point x="190" y="470"/>
			<point x="190" y="550" type="curve"/>
			<point x="190" y="620"/>
			<point x="243" y="688"/>
			<point x="350" y="688" type="curve"/>
			<point x="448" y="688"/>
			<point x="512" y="642"/>
			<point x="512" y="576" type="curve"/>
			<point x="512" y="573"/>
			<point x="512" y="569"/>
			<point x="511" y="557" type="curve"/>
			<point x="502" y="484"/>
			<point x="475" y="442"/>
			<point x="420" y="438" type="curve"/>
			<point x="393" y="436" type="line"/>
			<point x="393" y="411" type="line"/>
			<point x="467" y="411" type="line"/>
			<point x="467" y="115" type="line" smooth="yes"/>
			<point x="467" y="91"/>
			<point x="467" y="-11"/>
			<point x="577" y="-11" type="curve"/>
			<point x="609" y="-11"/>
			<point x="638" y="-1"/>
			<point x="661" y="24" type="curve"/>
			<point x="672" y="36"/>
			<point x="684" y="53"/>
		</contour>
	</outline>
</glyph>
