<?xml version="1.0" encoding="UTF-8"?>
<glyph name="seven.sups" format="2">
	<advance width="304"/>
	<note>
		seven.sups
	</note>
	<outline>
		<contour>
			<point x="256" y="608" type="curve"/>
			<point x="256" y="608" type="line"/>
			<point x="303" y="697" type="line"/>
			<point x="304" y="710" type="line"/>
			<point x="27" y="710" type="line"/>
			<point x="25" y="584" type="line"/>
			<point x="48" y="584" type="line"/>
			<point x="52" y="602" type="line" smooth="yes"/>
			<point x="60" y="639"/>
			<point x="69" y="648"/>
			<point x="120" y="648" type="curve"/>
			<point x="252" y="648" type="line"/>
			<point x="40" y="297" type="line"/>
			<point x="135" y="297" type="line"/>
			<point x="168" y="403"/>
			<point x="201" y="492"/>
		</contour>
	</outline>
</glyph>
