<?xml version="1.0" encoding="UTF-8"?>
<glyph name="tcaron.sc" format="2">
	<advance width="519"/>
	<note>
		tcaron.sc
	</note>
	<outline>
		<contour>
			<point x="248" y="592" type="line"/>
			<point x="170" y="685" type="line"/>
			<point x="146" y="685" type="line"/>
			<point x="240" y="505" type="line"/>
			<point x="262" y="505" type="line"/>
			<point x="356" y="685" type="line"/>
			<point x="332" y="685" type="line"/>
			<point x="254" y="592" type="line"/>
		</contour>
		<contour>
			<point x="494" y="296" type="curve"/>
			<point x="494" y="296" type="line"/>
			<point x="516" y="301" type="line"/>
			<point x="497" y="391" type="line"/>
			<point x="489" y="457" type="line"/>
			<point x="255" y="455" type="line"/>
			<point x="29" y="457" type="line"/>
			<point x="21" y="391" type="line"/>
			<point x="3" y="301" type="line"/>
			<point x="24" y="297" type="line"/>
			<point x="61" y="393"/>
			<point x="77" y="431"/>
			<point x="138" y="431" type="curve"/>
			<point x="219" y="431" type="line"/>
			<point x="219" y="121" type="line" smooth="yes"/>
			<point x="219" y="31"/>
			<point x="205" y="29"/>
			<point x="144" y="22" type="curve"/>
			<point x="127" y="20" type="line"/>
			<point x="127" y="-3" type="line"/>
			<point x="257" y="0" type="line"/>
			<point x="386" y="-3" type="line"/>
			<point x="386" y="20" type="line"/>
			<point x="369" y="22" type="line" smooth="yes"/>
			<point x="308" y="29"/>
			<point x="291" y="31"/>
			<point x="291" y="121" type="curve"/>
			<point x="291" y="431" type="line"/>
			<point x="380" y="431" type="line" smooth="yes"/>
			<point x="448" y="431"/>
			<point x="467" y="392"/>
		</contour>
	</outline>
</glyph>
