<?xml version="1.0" encoding="UTF-8"?>
<glyph name="three" format="2">
	<advance width="446"/>
	<unicode hex="0033"/>
	<note>
		three
	</note>
	<outline>
		<contour>
			<point x="158" y="-294" type="curve"/>
			<point x="158" y="-294" type="line"/>
			<point x="306" y="-294"/>
			<point x="378" y="-189"/>
			<point x="378" y="-68" type="curve"/>
			<point x="378" y="31"/>
			<point x="310" y="120"/>
			<point x="211" y="120" type="curve"/>
			<point x="202" y="120"/>
			<point x="194" y="119"/>
			<point x="184" y="118" type="curve"/>
			<point x="244" y="159" type="line" smooth="yes"/>
			<point x="329" y="217"/>
			<point x="353" y="276"/>
			<point x="353" y="328" type="curve"/>
			<point x="353" y="410"/>
			<point x="293" y="469"/>
			<point x="193" y="469" type="curve"/>
			<point x="102" y="469"/>
			<point x="33" y="413"/>
			<point x="33" y="335" type="curve"/>
			<point x="33" y="281"/>
			<point x="61" y="236"/>
			<point x="118" y="213" type="curve"/>
			<point x="126" y="236" type="line"/>
			<point x="97" y="247"/>
			<point x="63" y="275"/>
			<point x="63" y="333" type="curve"/>
			<point x="63" y="390"/>
			<point x="107" y="438"/>
			<point x="169" y="438" type="curve"/>
			<point x="229" y="438"/>
			<point x="273" y="399"/>
			<point x="273" y="327" type="curve"/>
			<point x="273" y="224"/>
			<point x="202" y="158"/>
			<point x="154" y="124" type="curve"/>
			<point x="137" y="111"/>
			<point x="129" y="107"/>
			<point x="111" y="99" type="curve"/>
			<point x="121" y="73" type="line"/>
			<point x="137" y="82"/>
			<point x="163" y="92"/>
			<point x="196" y="92" type="curve"/>
			<point x="253" y="92"/>
			<point x="294" y="44"/>
			<point x="294" y="-59" type="curve"/>
			<point x="294" y="-184"/>
			<point x="240" y="-267"/>
			<point x="154" y="-267" type="curve"/>
			<point x="94" y="-267"/>
			<point x="76" y="-242"/>
			<point x="76" y="-216" type="curve"/>
			<point x="76" y="-199"/>
			<point x="85" y="-187"/>
			<point x="85" y="-171" type="curve"/>
			<point x="85" y="-146"/>
			<point x="66" y="-128"/>
			<point x="42" y="-128" type="curve"/>
			<point x="13" y="-128"/>
			<point x="-6" y="-151"/>
			<point x="-6" y="-183" type="curve"/>
			<point x="-6" y="-248"/>
			<point x="73" y="-294"/>
		</contour>
	</outline>
</glyph>
