<?xml version="1.0" encoding="UTF-8"?>
<glyph name="x_s_e" format="2">
	<advance width="1003"/>
	<unicode hex="F57B0"/>
	<note>
		x_s_e
	</note>
	<outline>
		<contour>
			<point x="968" y="115" type="curve"/>
			<point x="944" y="124" type="line"/>
			<point x="917" y="54"/>
			<point x="866" y="19"/>
			<point x="804" y="19" type="curve"/>
			<point x="703" y="19"/>
			<point x="651" y="108"/>
			<point x="651" y="217" type="curve"/>
			<point x="651" y="226"/>
			<point x="651" y="236"/>
			<point x="652" y="245" type="curve"/>
			<point x="954" y="245" type="line"/>
			<point x="955" y="249"/>
			<point x="957" y="260"/>
			<point x="957" y="276" type="curve"/>
			<point x="957" y="382"/>
			<point x="895" y="454"/>
			<point x="793" y="454" type="curve"/>
			<point x="729" y="454"/>
			<point x="671" y="425"/>
			<point x="630" y="378" type="curve"/>
			<point x="630" y="386" type="line"/>
			<point x="634" y="451" type="line"/>
			<point x="612" y="452" type="line"/>
			<point x="608" y="438"/>
			<point x="604" y="431"/>
			<point x="596" y="431" type="curve"/>
			<point x="592" y="431"/>
			<point x="587" y="432"/>
			<point x="579" y="436" type="curve"/>
			<point x="563" y="444"/>
			<point x="540" y="454"/>
			<point x="507" y="454" type="curve"/>
			<point x="437" y="454"/>
			<point x="374" y="404"/>
			<point x="374" y="325" type="curve"/>
			<point x="374" y="262"/>
			<point x="409" y="225"/>
			<point x="479" y="198" type="curve"/>
			<point x="515" y="184" type="line" smooth="yes"/>
			<point x="575" y="161"/>
			<point x="611" y="134"/>
			<point x="611" y="91" type="curve"/>
			<point x="640" y="50" type="line"/>
			<point x="637" y="45" type="line"/>
			<point x="675" y="10"/>
			<point x="727" y="-11"/>
			<point x="790" y="-11" type="curve"/>
			<point x="881" y="-11"/>
			<point x="940" y="31"/>
		</contour>
		<contour>
			<point x="781" y="268" type="curve"/>
			<point x="577" y="268" type="line"/>
			<point x="575" y="261"/>
			<point x="574" y="254"/>
			<point x="573" y="246" type="curve"/>
			<point x="552" y="255" type="line"/>
			<point x="513" y="270" type="line" smooth="yes"/>
			<point x="489" y="279"/>
			<point x="425" y="303"/>
			<point x="425" y="358" type="curve"/>
			<point x="425" y="401"/>
			<point x="459" y="432"/>
			<point x="503" y="432" type="curve"/>
			<point x="565" y="432"/>
			<point x="598" y="379"/>
			<point x="607" y="316" type="curve"/>
			<point x="663" y="316" type="line"/>
			<point x="682" y="385"/>
			<point x="725" y="429"/>
			<point x="793" y="429" type="curve"/>
			<point x="842" y="429"/>
			<point x="890" y="393"/>
			<point x="890" y="335" type="curve"/>
			<point x="890" y="305"/>
			<point x="871" y="268"/>
		</contour>
		<component base="x_s.ss01"/>
	</outline>
	<lib>
		<dict>
			<key>com.schriftgestaltung.Glyphs.rightMetricsKey</key>
			<string>e</string>
		</dict>
	</lib>
</glyph>
