<?xml version="1.0" encoding="UTF-8"?>
<glyph name="circumflex" format="2">
	<advance width="310"/>
	<unicode hex="02C6"/>
	<note>
		circumflex
  </note>
	<outline>
		<contour>
			<point x="236" y="520" type="line"/>
			<point x="260" y="520" type="line"/>
			<point x="166" y="710" type="line"/>
			<point x="144" y="710" type="line"/>
			<point x="50" y="520" type="line"/>
			<point x="74" y="520" type="line"/>
			<point x="152" y="618" type="line"/>
			<point x="158" y="618" type="line"/>
		</contour>
	</outline>
</glyph>
