<?xml version="1.0" encoding="UTF-8"?>
<glyph name="Nacute" format="2">
	<advance width="781"/>
	<unicode hex="0143"/>
	<note>
		Nacute
  </note>
	<outline>
		<contour>
			<point x="406" y="942" type="curve"/>
			<point x="406" y="942" type="line"/>
			<point x="367" y="794" type="line"/>
			<point x="389" y="794" type="line"/>
			<point x="463" y="913" type="line" smooth="yes"/>
			<point x="473" y="929"/>
			<point x="480" y="946"/>
			<point x="480" y="962" type="curve"/>
			<point x="480" y="986"/>
			<point x="465" y="998"/>
			<point x="449" y="998" type="curve"/>
			<point x="433" y="998"/>
			<point x="417" y="984"/>
		</contour>
		<contour>
			<point x="741" y="686" type="curve"/>
			<point x="741" y="686" type="line"/>
			<point x="761" y="688" type="line"/>
			<point x="761" y="713" type="line"/>
			<point x="639" y="710" type="line"/>
			<point x="509" y="713" type="line"/>
			<point x="509" y="688" type="line"/>
			<point x="529" y="686" type="line" smooth="yes"/>
			<point x="598" y="679"/>
			<point x="615" y="676"/>
			<point x="615" y="577" type="curve"/>
			<point x="615" y="199" type="line"/>
			<point x="545" y="289"/>
			<point x="302" y="610"/>
			<point x="229" y="710" type="curve"/>
			<point x="35" y="713" type="line"/>
			<point x="35" y="687" type="line"/>
			<point x="65" y="687" type="line" smooth="yes"/>
			<point x="111" y="687"/>
			<point x="133" y="664"/>
			<point x="145" y="649" type="curve"/>
			<point x="145" y="133" type="line" smooth="yes"/>
			<point x="145" y="33"/>
			<point x="128" y="30"/>
			<point x="59" y="23" type="curve"/>
			<point x="39" y="21" type="line"/>
			<point x="39" y="-4" type="line"/>
			<point x="163" y="0" type="line"/>
			<point x="291" y="-4" type="line"/>
			<point x="291" y="21" type="line"/>
			<point x="271" y="23" type="line" smooth="yes"/>
			<point x="202" y="30"/>
			<point x="185" y="33"/>
			<point x="185" y="133" type="curve"/>
			<point x="185" y="606" type="line"/>
			<point x="289" y="483"/>
			<point x="560" y="131"/>
			<point x="625" y="0" type="curve"/>
			<point x="655" y="0" type="line"/>
			<point x="655" y="577" type="line" smooth="yes"/>
			<point x="655" y="676"/>
			<point x="672" y="678"/>
		</contour>
	</outline>
</glyph>
