<?xml version="1.0" encoding="UTF-8"?>
<glyph name="six.numr" format="2">
	<advance width="363"/>
	<note>
		six.numr
  </note>
	<outline>
		<contour>
			<point x="202" y="546" type="curve"/>
			<point x="202" y="546" type="line"/>
			<point x="168" y="546"/>
			<point x="136" y="534"/>
			<point x="114" y="514" type="curve"/>
			<point x="115" y="551"/>
			<point x="118" y="582"/>
			<point x="123" y="605" type="curve"/>
			<point x="137" y="668"/>
			<point x="167" y="701"/>
			<point x="209" y="701" type="curve"/>
			<point x="231" y="701"/>
			<point x="244" y="693"/>
			<point x="244" y="677" type="curve"/>
			<point x="244" y="662"/>
			<point x="232" y="656"/>
			<point x="232" y="637" type="curve"/>
			<point x="232" y="619"/>
			<point x="248" y="603"/>
			<point x="270" y="603" type="curve"/>
			<point x="294" y="603"/>
			<point x="309" y="623"/>
			<point x="309" y="646" type="curve"/>
			<point x="309" y="689"/>
			<point x="273" y="717"/>
			<point x="209" y="717" type="curve"/>
			<point x="101" y="717"/>
			<point x="40" y="634"/>
			<point x="40" y="488" type="curve"/>
			<point x="40" y="352"/>
			<point x="85" y="291"/>
			<point x="187" y="291" type="curve"/>
			<point x="291" y="291"/>
			<point x="333" y="361"/>
			<point x="333" y="425" type="curve"/>
			<point x="333" y="495"/>
			<point x="277" y="546"/>
		</contour>
		<contour>
			<point x="191" y="314" type="curve"/>
			<point x="191" y="314" type="line"/>
			<point x="143" y="314"/>
			<point x="113" y="356"/>
			<point x="113" y="417" type="curve"/>
			<point x="113" y="484"/>
			<point x="147" y="523"/>
			<point x="194" y="523" type="curve"/>
			<point x="236" y="523"/>
			<point x="260" y="489"/>
			<point x="260" y="425" type="curve"/>
			<point x="260" y="348"/>
			<point x="238" y="314"/>
		</contour>
	</outline>
</glyph>
