<?xml version="1.0" encoding="UTF-8"?>
<glyph name="uni030C.alt" format="2">
	<advance width="0"/>
	<note>
		uni030C.alt
  </note>
	<outline>
		<contour>
			<point x="-131" y="666" type="curve"/>
			<point x="-131" y="666" type="line"/>
			<point x="-150" y="509" type="line"/>
			<point x="-126" y="509" type="line"/>
			<point x="-74" y="655" type="line" smooth="yes"/>
			<point x="-63" y="687"/>
			<point x="-62" y="724"/>
			<point x="-95" y="724" type="curve"/>
			<point x="-112" y="724"/>
			<point x="-126" y="712"/>
		</contour>
	</outline>
</glyph>
