<?xml version="1.0" encoding="UTF-8"?>
<glyph name="zacute" format="2">
	<advance width="466"/>
	<unicode hex="017A"/>
	<note>
		zacute
  </note>
	<outline>
		<contour>
			<point x="247" y="668" type="curve"/>
			<point x="247" y="668" type="line"/>
			<point x="208" y="520" type="line"/>
			<point x="230" y="520" type="line"/>
			<point x="304" y="639" type="line" smooth="yes"/>
			<point x="314" y="655"/>
			<point x="321" y="672"/>
			<point x="321" y="688" type="curve"/>
			<point x="321" y="712"/>
			<point x="306" y="724"/>
			<point x="290" y="724" type="curve"/>
			<point x="274" y="724"/>
			<point x="258" y="710"/>
		</contour>
		<contour>
			<point x="232" y="25" type="curve"/>
			<point x="232" y="25" type="line"/>
			<point x="124" y="25" type="line"/>
			<point x="428" y="417" type="line"/>
			<point x="421" y="436" type="line"/>
			<point x="75" y="436" type="line"/>
			<point x="64" y="365" type="line"/>
			<point x="42" y="275" type="line"/>
			<point x="65" y="275" type="line"/>
			<point x="87" y="389"/>
			<point x="152" y="412"/>
			<point x="265" y="412" type="curve"/>
			<point x="338" y="412" type="line"/>
			<point x="35" y="20" type="line"/>
			<point x="42" y="0" type="line"/>
			<point x="413" y="0" type="line"/>
			<point x="414" y="53" type="line"/>
			<point x="426" y="158" type="line"/>
			<point x="403" y="158" type="line"/>
			<point x="388" y="43"/>
			<point x="321" y="25"/>
		</contour>
	</outline>
</glyph>
