<?xml version="1.0" encoding="UTF-8"?>
<glyph name="zero.alt05" format="2">
	<advance width="489"/>
	<note>
		zero.alt05
  </note>
	<outline>
		<contour>
			<point x="253" y="466" type="curve"/>
			<point x="253" y="466" type="line"/>
			<point x="326" y="466"/>
			<point x="387" y="427"/>
			<point x="422" y="359" type="curve"/>
			<point x="443" y="318"/>
			<point x="452" y="275"/>
			<point x="452" y="230" type="curve"/>
			<point x="451" y="230" type="line"/>
			<point x="451" y="167"/>
			<point x="434" y="110"/>
			<point x="394" y="61" type="curve"/>
			<point x="362" y="21"/>
			<point x="320" y="-1"/>
			<point x="269" y="-5" type="curve"/>
			<point x="213" y="-9"/>
			<point x="163" y="6"/>
			<point x="122" y="45" type="curve"/>
			<point x="88" y="76"/>
			<point x="68" y="115"/>
			<point x="57" y="158" type="curve"/>
			<point x="41" y="229"/>
			<point x="46" y="298"/>
			<point x="81" y="363" type="curve"/>
			<point x="112" y="421"/>
			<point x="160" y="456"/>
			<point x="226" y="465" type="curve"/>
			<point x="235" y="466"/>
			<point x="244" y="466"/>
		</contour>
		<contour>
			<point x="256" y="439" type="curve"/>
			<point x="256" y="439" type="line"/>
			<point x="247" y="439"/>
			<point x="238" y="438"/>
			<point x="228" y="435" type="curve"/>
			<point x="223" y="434"/>
			<point x="219" y="430"/>
			<point x="214" y="428" type="curve"/>
			<point x="218" y="425"/>
			<point x="221" y="420"/>
			<point x="225" y="417" type="curve"/>
			<point x="238" y="409"/>
			<point x="251" y="402"/>
			<point x="263" y="392" type="curve"/>
			<point x="286" y="375"/>
			<point x="292" y="350"/>
			<point x="279" y="325" type="curve"/>
			<point x="273" y="313"/>
			<point x="265" y="302"/>
			<point x="256" y="294" type="curve"/>
			<point x="235" y="275"/>
			<point x="213" y="258"/>
			<point x="192" y="240" type="curve"/>
			<point x="169" y="222"/>
			<point x="146" y="203"/>
			<point x="129" y="178" type="curve"/>
			<point x="116" y="159"/>
			<point x="109" y="139"/>
			<point x="113" y="116" type="curve"/>
			<point x="119" y="86"/>
			<point x="137" y="63"/>
			<point x="161" y="45" type="curve"/>
			<point x="186" y="25"/>
			<point x="217" y="19"/>
			<point x="249" y="19" type="curve"/>
			<point x="254" y="19"/>
			<point x="258" y="19"/>
			<point x="263" y="20" type="curve"/>
			<point x="265" y="20"/>
			<point x="268" y="22"/>
			<point x="271" y="23" type="curve"/>
			<point x="266" y="29" type="line" smooth="yes"/>
			<point x="258" y="37"/>
			<point x="248" y="45"/>
			<point x="240" y="53" type="curve"/>
			<point x="221" y="75"/>
			<point x="216" y="100"/>
			<point x="226" y="128" type="curve"/>
			<point x="235" y="155"/>
			<point x="253" y="174"/>
			<point x="274" y="192" type="curve"/>
			<point x="355" y="263" type="line" smooth="yes"/>
			<point x="370" y="276"/>
			<point x="382" y="291"/>
			<point x="392" y="308" type="curve"/>
			<point x="403" y="327"/>
			<point x="403" y="345"/>
			<point x="392" y="364" type="curve"/>
			<point x="389" y="369"/>
			<point x="386" y="374"/>
			<point x="382" y="379" type="curve"/>
			<point x="366" y="398"/>
			<point x="346" y="412"/>
			<point x="324" y="422" type="curve"/>
			<point x="302" y="432"/>
			<point x="280" y="439"/>
		</contour>
	</outline>
</glyph>
