<?xml version="1.0" encoding="UTF-8"?>
<glyph name="r_s_e" format="2">
	<advance width="945"/>
	<outline>
		<contour>
			<point x="910" y="115" type="curve"/>
			<point x="910" y="115" type="line"/>
			<point x="886" y="124" type="line"/>
			<point x="859" y="54"/>
			<point x="808" y="19"/>
			<point x="746" y="19" type="curve"/>
			<point x="645" y="19"/>
			<point x="593" y="108"/>
			<point x="593" y="217" type="curve"/>
			<point x="593" y="226"/>
			<point x="593" y="236"/>
			<point x="594" y="245" type="curve"/>
			<point x="896" y="245" type="line"/>
			<point x="897" y="249"/>
			<point x="899" y="260"/>
			<point x="899" y="276" type="curve"/>
			<point x="899" y="382"/>
			<point x="837" y="454"/>
			<point x="735" y="454" type="curve"/>
			<point x="671" y="454"/>
			<point x="613" y="425"/>
			<point x="572" y="378" type="curve"/>
			<point x="572" y="386" type="line"/>
			<point x="576" y="451" type="line"/>
			<point x="554" y="452" type="line"/>
			<point x="550" y="438"/>
			<point x="546" y="431"/>
			<point x="538" y="431" type="curve"/>
			<point x="534" y="431"/>
			<point x="529" y="432"/>
			<point x="521" y="436" type="curve"/>
			<point x="505" y="444"/>
			<point x="482" y="454"/>
			<point x="449" y="454" type="curve"/>
			<point x="417" y="454"/>
			<point x="387" y="444"/>
			<point x="364" y="425" type="curve"/>
			<point x="354" y="441"/>
			<point x="336" y="454"/>
			<point x="302" y="454" type="curve"/>
			<point x="253" y="454"/>
			<point x="208" y="422"/>
			<point x="179" y="333" type="curve"/>
			<point x="175" y="333" type="line"/>
			<point x="186" y="448" type="line"/>
			<point x="131" y="440"/>
			<point x="83" y="436"/>
			<point x="28" y="436" type="curve"/>
			<point x="28" y="413" type="line"/>
			<point x="82" y="413"/>
			<point x="116" y="407"/>
			<point x="116" y="329" type="curve"/>
			<point x="116" y="121" type="line" smooth="yes"/>
			<point x="116" y="31"/>
			<point x="102" y="29"/>
			<point x="44" y="22" type="curve"/>
			<point x="28" y="20" type="line"/>
			<point x="28" y="-3" type="line"/>
			<point x="151" y="0" type="line"/>
			<point x="274" y="-3" type="line"/>
			<point x="274" y="20" type="line"/>
			<point x="258" y="22" type="line" smooth="yes"/>
			<point x="200" y="29"/>
			<point x="186" y="31"/>
			<point x="186" y="121" type="curve"/>
			<point x="186" y="279" type="line"/>
			<point x="193" y="315"/>
			<point x="204" y="346"/>
			<point x="216" y="371" type="curve"/>
			<point x="231" y="401"/>
			<point x="253" y="420"/>
			<point x="272" y="420" type="curve"/>
			<point x="280" y="420"/>
			<point x="286" y="417"/>
			<point x="286" y="410" type="curve"/>
			<point x="286" y="403"/>
			<point x="281" y="390"/>
			<point x="281" y="377" type="curve"/>
			<point x="281" y="361"/>
			<point x="294" y="347"/>
			<point x="317" y="344" type="curve"/>
			<point x="316" y="338"/>
			<point x="316" y="332"/>
			<point x="316" y="325" type="curve"/>
			<point x="316" y="262"/>
			<point x="351" y="225"/>
			<point x="421" y="198" type="curve"/>
			<point x="457" y="184" type="line" smooth="yes"/>
			<point x="517" y="161"/>
			<point x="553" y="134"/>
			<point x="553" y="91" type="curve"/>
			<point x="553" y="42"/>
			<point x="516" y="12"/>
			<point x="462" y="12" type="curve"/>
			<point x="386" y="12"/>
			<point x="334" y="78"/>
			<point x="331" y="134" type="curve"/>
			<point x="330" y="151" type="line"/>
			<point x="308" y="151" type="line"/>
			<point x="305" y="66" type="line"/>
			<point x="301" y="0" type="line"/>
			<point x="324" y="0" type="line"/>
			<point x="328" y="19"/>
			<point x="330" y="21"/>
			<point x="336" y="21" type="curve"/>
			<point x="340" y="21"/>
			<point x="346" y="18"/>
			<point x="356" y="13" type="curve"/>
			<point x="376" y="4"/>
			<point x="411" y="-11"/>
			<point x="462" y="-11" type="curve"/>
			<point x="519" y="-11"/>
			<point x="560" y="14"/>
			<point x="582" y="50" type="curve"/>
			<point x="579" y="45" type="line"/>
			<point x="617" y="10"/>
			<point x="669" y="-11"/>
			<point x="732" y="-11" type="curve"/>
			<point x="823" y="-11"/>
			<point x="882" y="31"/>
		</contour>
		<contour>
			<point x="723" y="268" type="curve"/>
			<point x="723" y="268" type="line"/>
			<point x="519" y="268" type="line"/>
			<point x="517" y="261"/>
			<point x="516" y="254"/>
			<point x="515" y="246" type="curve"/>
			<point x="494" y="255" type="line"/>
			<point x="455" y="270" type="line" smooth="yes"/>
			<point x="400" y="291"/>
			<point x="367" y="316"/>
			<point x="367" y="358" type="curve"/>
			<point x="367" y="364"/>
			<point x="368" y="369"/>
			<point x="369" y="374" type="curve"/>
			<point x="371" y="382" type="line" smooth="yes"/>
			<point x="381" y="412"/>
			<point x="410" y="432"/>
			<point x="445" y="432" type="curve"/>
			<point x="507" y="432"/>
			<point x="540" y="379"/>
			<point x="549" y="316" type="curve"/>
			<point x="605" y="316" type="line"/>
			<point x="624" y="385"/>
			<point x="667" y="429"/>
			<point x="735" y="429" type="curve"/>
			<point x="784" y="429"/>
			<point x="832" y="393"/>
			<point x="832" y="335" type="curve"/>
			<point x="832" y="305"/>
			<point x="813" y="268"/>
		</contour>
	</outline>
</glyph>
