<?xml version="1.0" encoding="UTF-8"?>
<glyph name="u_i_l" format="2">
	<advance width="747"/>
	<outline>
		<contour>
			<point x="476" y="197" type="curve"/>
			<point x="476" y="434" type="line"/>
			<point x="406" y="312" type="line"/>
			<point x="406" y="133" type="line"/>
			<point x="382" y="78"/>
			<point x="332" y="21"/>
			<point x="259" y="21" type="curve"/>
			<point x="202" y="21"/>
			<point x="166" y="56"/>
			<point x="166" y="122" type="curve"/>
			<point x="166" y="434" type="line"/>
			<point x="131" y="433" type="line"/>
			<point x="8" y="436" type="line"/>
			<point x="8" y="413" type="line"/>
			<point x="24" y="411" type="line" smooth="yes"/>
			<point x="82" y="404"/>
			<point x="96" y="402"/>
			<point x="96" y="312" type="curve"/>
			<point x="96" y="118" type="line" smooth="yes"/>
			<point x="96" y="33"/>
			<point x="149" y="-11"/>
			<point x="236" y="-11" type="curve"/>
			<point x="301" y="-11"/>
			<point x="350" y="16"/>
			<point x="385" y="55" type="curve"/>
			<point x="393" y="64"/>
			<point x="400" y="74"/>
			<point x="406" y="83" type="curve" smooth="yes"/>
			<point x="424" y="110"/>
			<point x="453" y="170"/>
		</contour>
		<component base="i_l" xOffset="308"/>
	</outline>
	<lib>
		<dict>
			<key>com.schriftgestaltung.Glyphs.ComponentInfo</key>
			<array>
				<dict>
					<key>alignment</key>
					<integer>-1</integer>
					<key>index</key>
					<integer>1</integer>
					<key>name</key>
					<string>i_l</string>
				</dict>
			</array>
		</dict>
	</lib>
</glyph>
